{
  "name": "Lenguaje y Comunicación IV",
  "image": "portada.jpg",
  "temas": [
    {
      "tema": "Introducción",
      "subtemas": [
        {
          "tema": "UAC II",
          "url": "index.html"
        },
        {
          "tema": "Multidisciplinariedad",
          "url": "multidisciplinariedad.html"
        },
        {
          "tema": "Evaluación diagnóstica",
          "url": "evaluacion_diagnostica.html"
        },
        {
          "tema": "Situación de aprendizaje",
          "url": "situacion_de_aprendizaje.html"
        },
        {
          "tema": "Situación en contexto",
          "url": "situacion_en_contexto.html"
        }
      ]
    },
    {
      "tema": "Valoro información y argumento en forma oral y escrita",
      "subtemas": [
        {
          "tema": "A. Discurso",
          "url": "tema1.0.0.html"
        },
        {
          "tema": "Actividad 1",
          "url": "tema1.0.0A1.html"
        },
        {
          "tema": "Actividad 2",
          "url": "tema1.0.0A2.html"
        },
        {
          "tema": "Estructura del discurso",
          "url": "tema1.1.0.html"
        },
        {
          "tema": "Actividad 3",
          "url": "tema1.1.0A3.html"
        },
        {
          "tema": "Actividad 4",
          "url": "tema1.1.0A4.html"
        },
        {
          "tema": "Redacción de un discurso",
          "url": "tema1.2.0.html"
        },
        {
          "tema": "Actividad 5",
          "url": "tema1.2.0A5.html"
        },
        {
          "tema": "Técnicas de expresión oral",
          "url": "tema1.3.0.html"
        },
        {
          "tema": "Actividad 6",
          "url": "tema1.3.0A6.html"
        },
        {
          "tema": "Actividad 7",
          "url": "tema1.3.0A7.html"
        },
        {
          "tema": "Actividad 8",
          "url": "tema1.3.0A8.html"
        },
        {
          "tema": "Actividad multidisciplinar",
          "url": "tema1.3.0A8_actividad_multidisciplinar.html"
        },
        {
          "tema": "Actividad DHS",
          "url": "tema1.3.0A8_dhs.html"
        }

      ]
    },
    {
      "tema": "Comparto y respeto distintas posturas sobre un tema específico",
      "subtemas": [
        {
          "tema": "A. Debate",
          "url": "tema2.0.0.html"
        },
        {
          "tema": "Actividad 9",
          "url": "tema2.0.0A9.html"
        },
        {
          "tema": "Actividad 10",
          "url": "tema2.0.0A10.html"
        },
        {
          "tema": "Estructura del debate",
          "url": "tema2.1.0.html"
        },
        {
          "tema": "Actividad 11",
          "url": "tema2.1.0A11.html"
        },
        {
          "tema": "Actividad 12",
          "url": "tema2.1.0A12.html"
        },
        {
          "tema": "Mientras tanto...",
          "url": "tema2.1.1_mientras_tanto.html"
        },
        {
          "tema": "Planeación del debate",
          "url": "tema2.2.0.html"
        },
        {
          "tema": "Actividad 13",
          "url": "tema2.2.0A13.html"
        },
        {
          "tema": "Actividad 14",
          "url": "tema2.2.0A14.html"
        },
        {
          "tema": "Fomento a la lectura",
          "url": "tema2.2.0A14_lectura.html"
        },
        {
          "tema": "Actividad DHS",
          "url": "tema2.2.1_dhs.html"
        },
        {
          "tema": "Evaluación de situación de aprendizaje",
          "url": "tema2.2.1_situacion_de_aprendizaje.html"
        },
        {
          "tema": "Oriéntate",
          "url": "tema2.2.2_orientate.html"
        },
        {
          "tema": "Evaluación objetiva",
          "url": "tema2.2.3_evaluacion_objetiva.html"
        },
        {
          "tema": "Metacognición",
          "url": "tema2.2.4_metacognicion.html"
        },
        {
          "tema": "Evaluación de saberes",
          "url": "tema2.2.5_evaluacion_de_saberes.html"
        },
        {
          "tema": "Prueba tipo PLANEA",
          "url": "tema2.2.5_prueba_planea.html"
        }

      ]
    }
  ]
}